<svg width="10" height="10" viewBox="0 0 10 10" fill="none" xmlns="http://www.w3.org/2000/svg">
<path d="M9.39162 0.60877C9.34101 0.558398 9.27707 0.523522 9.20732 0.508243C9.13756 0.492964 9.0649 0.497917 8.99787 0.52252L0.747867 3.52252C0.676717 3.54951 0.615461 3.5975 0.572236 3.66013C0.52901 3.72275 0.505859 3.79705 0.505859 3.87315C0.505859 3.94924 0.52901 4.02354 0.572236 4.08616C0.615461 4.14879 0.676717 4.19678 0.747867 4.22377L3.96912 5.51002L6.34662 3.12502L6.87537 3.65377L4.48662 6.04252L5.77662 9.26377C5.80441 9.33354 5.85251 9.39337 5.91469 9.43549C5.97687 9.47761 6.05026 9.50009 6.12537 9.50002C6.20115 9.49847 6.27468 9.47398 6.33627 9.4298C6.39786 9.38562 6.44461 9.32381 6.47037 9.25252L9.47037 1.00252C9.49592 0.936174 9.50208 0.863932 9.48814 0.794217C9.47419 0.724502 9.44072 0.660187 9.39162 0.60877Z" fill="#3AB67D"/>
</svg>
